Basic cleanup, checks, and annotation of ADT data — adt_annotate • tidybrookes
…
adt_data_example %>%
  adt_annotate(annotate_fn = identity,
               fixed_labels = fixed_labels)
#> # A tibble: 22 × 16
#>    person_id visit_id event_type  visit_index start_datetime      discharge_datetime  end_datetime        department     bed   room  department_just_moved department_visit_index department_start_dat…¹
#>    <chr>        <int> <chr>             <int> <dttm>              <dttm>              <dttm>              <chr>          <chr> <chr> <lgl>                                  <int> <dttm>                
#>  1 CC               4 Admission             1 2021-01-01 08:00:00 2021-02-01 18:00:00 2021-01-01 09:00:00 ADD EMERGENCY… A-01  NA    TRUE                                       1 2021-01-01 08:00:00   
#>  2 AA               1 Admission             1 2021-01-01 09:00:00 2021-01-03 18:00:00 2021-01-01 12:00:00 ADD EMERGENCY… A-01  NA    TRUE                                       1 2021-01-01 09:00:00   
#>  3 CC               4 Transfer In           1 2021-01-01 09:00:00 2021-02-01 18:00:00 2021-01-05 09:00:00 ADD X WARD     X-01  NA    TRUE                                       2 2021-01-01 09:00:00   
#>  4 AA               1 Transfer In           1 2021-01-01 12:00:00 2021-01-03 18:00:00 2021-01-02 09:00:00 ADD C2 WARD    B-01  NA    TRUE                                       2 2021-01-01 12:00:00   
#>  5 AA               1 Transfer In           1 2021-01-02 09:00:00 2021-01-03 18:00:00 2021-01-03 18:00:00 ADD C2 WARD    B-02  NA    FALSE                                      2 2021-01-01 12:00:00   
#>  6 AA               1 Discharge             1 2021-01-03 18:00:00 2021-01-03 18:00:00 NA                  NA             NA    NA    TRUE                                       3 2021-01-03 18:00:00   
#>  7 CC               4 Transfer In           1 2021-01-05 09:00:00 2021-02-01 18:00:00 2021-01-10 09:00:00 ADD X WARD     X-02  NA    FALSE                                      2 2021-01-01 09:00:00   
#>  8 AA               2 Admission             2 2021-01-05 11:00:00 2021-01-07 18:00:00 2021-01-05 12:00:00 ADD EMERGENCY… A-01  NA    TRUE                                       1 2021-01-05 11:00:00   
#>  9 AA               2 Transfer In           2 2021-01-05 12:00:00 2021-01-07 18:00:00 2021-01-07 18:00:00 ADD D2 WARD    D-01  NA    TRUE                                       2 2021-01-05 12:00:00   
#> 10 AA               2 Discharge             2 2021-01-07 18:00:00 2021-01-07 18:00:00 NA                  NA             NA    NA    TRUE                                       3 2021-01-07 18:00:00   
#> # ℹ 12 more rows
#> # ℹ abbreviated name: ¹​department_start_datetime
#> # ℹ 3 more variables: department_end_datetime <dttm>, department_length_days <dbl>, is_ed <lgl>
…
