Extract first or last measurement during a timeperiod — first_during • tidybrookes
…
# example data with 3 fsheet data fields
fsheet_example
#> # A tibble: 26 × 17
#>    person_id symbol measurement_datetime value_as_number censoring value_as_logical value_as_character name        unit  type    template  form         data_id line_id measurement_id title comment
#>    <chr>     <chr>  <dttm>                         <dbl> <chr>     <lgl>            <chr>              <chr>       <chr> <chr>   <chr>     <chr>          <int>   <int> <chr>          <chr> <chr>  
#>  1 CC        news2  2021-01-01 08:59:00                5 NA        NA               NA                 NEWS2 score NA    numeric IP Vitals Vital signs 10926333     239 1234           NEWS2 NA     
#>  2 AA        news2  2021-01-01 09:00:00                3 NA        NA               NA                 NEWS2 score NA    numeric IP Vitals Vital signs 10926333     239 1234           NEWS2 NA     
#>  3 AA        news2  2021-01-01 09:30:00                3 NA        NA               NA                 NEWS2 score NA    numeric IP Vitals Vital signs 10926333     239 1234           NEWS2 NA     
#>  4 AA        news2  2021-01-01 12:30:00                4 NA        NA               NA                 NEWS2 score NA    numeric IP Vitals Vital signs 10926333     239 1234           NEWS2 NA     
#>  5 CC        news2  2021-01-03 17:00:00                7 NA        NA               NA                 NEWS2 score NA    numeric IP Vitals Vital signs 10926333     239 1234           NEWS2 NA     
#>  6 CC        news2  2021-01-04 09:00:00                6 NA        NA               NA                 NEWS2 score NA    numeric IP Vitals Vital signs 10926333     239 1234           NEWS2 NA     
#>  7 AA        news2  2021-01-05 11:30:00                3 NA        NA               NA                 NEWS2 score NA    numeric IP Vitals Vital signs 10926333     239 1234           NEWS2 NA     
#>  8 AA        news2  2021-01-05 16:30:00                6 NA        NA               NA                 NEWS2 score NA    numeric IP Vitals Vital signs 10926333     239 1234           NEWS2 NA     
#>  9 AA        news2  2021-01-06 10:30:00                3 NA        NA               NA                 NEWS2 score NA    numeric IP Vitals Vital signs 10926333     239 1234           NEWS2 NA     
#> 10 BB        news2  2021-01-21 09:30:00                3 NA        NA               NA                 NEWS2 score NA    numeric IP Vitals Vital signs 10926333     239 1234           NEWS2 NA     
#> # ℹ 16 more rows
…
