Rename to tidy column names — rename • tidybrookes
…
colnames(fsheet_rename(fsheet_imported_example))
#>  [1] "person_id"            "name"                 "value"                "comment"              "measurement_datetime" "data_id"              "measurement_id"       "line_id"             
#>  [9] "template"             "form"                

# A warning is issued if columns are missing
fsheet_imported_example %>%
  select(-MEASURE_TIME) %>%
  fsheet_rename
#> ! Some columns were missing: MEASURE_TIME
#> # A tibble: 32 × 9
#>    person_id name        value comment  data_id measurement_id line_id template  form       
#>    <chr>     <chr>       <chr> <chr>    <int64>        <int64> <int64> <chr>     <chr>      
#>  1 AA        Weight      4125  NA             5           1234      61 IP Vitals Vital signs
#>  2 AA        SpO2        96    NA      10909029             10      60 IP Vitals Vital signs
#>  3 AA        SpO2        90    NA      10909029             10      60 IP Vitals Vital signs
#>  4 AA        NEWS2 score 3     NA      10926333           1234     239 IP Vitals Vital signs
#>  5 AA        NEWS2 score 4     NA      10926333           1234     239 IP Vitals Vital signs
#>  6 AA        NEWS2 score 3     NA      10926333           1234     239 IP Vitals Vital signs
#>  7 AA        SpO2        96    NA      10909029             10      60 IP Vitals Vital signs
#>  8 AA        SpO2        90    NA      10909029             10      60 IP Vitals Vital signs
#>  9 AA        SpO2        92    NA      10909029             10      60 IP Vitals Vital signs
#> 10 AA        NEWS2 score 3     NA      10926333           1234     239 IP Vitals Vital signs
#> # ℹ 22 more rows
…
