Introduction to tidybrookes • tidybrookes
…
adm_data_example %>%
  first_during(fsheet_data,
             datetime = measurement_datetime,
             during = "during_visit") %>%
  select(person_id,
         visit_id,
         visit_start_datetime,
         visit_end_datetime,
         contains("news2"))
#> ℹ Extracting all during
#> ℹ Summarising/slicing
#> ℹ Pivoting wider
#> # A tibble: 5 × 6
#>   person_id visit_id visit_start_datetime visit_end_datetime  news2_first_during_visit_datetime news2_first_during_visit
#>   <chr>        <int> <dttm>               <dttm>              <dttm>                                               <dbl>
#> 1 AA               1 2021-01-01 09:00:00  2021-01-03 18:00:00 2021-01-01 09:00:00                                      3
#> 2 AA               2 2021-01-05 11:00:00  2021-01-07 18:00:00 2021-01-05 11:30:00                                      3
#> 3 BB               3 2021-01-20 09:00:00  2021-02-01 18:00:00 2021-01-21 09:30:00                                      3
#> 4 CC               4 2021-01-01 08:00:00  2021-02-01 18:00:00 2021-01-01 08:59:00                                      5
#> # ℹ 1 more row
…
